unicol	1_LAM::TTest_p
Na	0.000402485718950629
O15530	0.0358173549175262
O43281	0.00705842114984989
O43561	0.299408257007599
O43602	0.898272633552551
O60674	0.312225461006165
P00533	0.0182195082306862
P00736	0.0804421752691269
P02686	0.0250379499047995
P02730	0.0611199475824833
P04049	0.184773713350296
P04083	0.0623643957078457
P04259	0.454084932804108
P04626	0.019027492031455
P04629	0.465619653463364
P05413	0.36544081568718
P05787	0.357737004756927
P06213	0.0118808979168534
P06239	0.980458974838257
P06400	0.1142578125
P06401	0.0373277254402637
P07332	0.0160317458212376
P07355	0.275117754936218
P07949	0.00259879580698907
P08581	0.481607466936111
P09104	0.00839574914425611
P09619	0.00472156377509236
P11171	0.996926069259644
P11362	0.202158823609352
P11912	0.845408797264099
P12694	0.18873755633831
P13805	0.413290977478027
P14598	0.00915746670216322
P16284	0.940046489238739
P16591	0.161932870745659
P17948	0.0770857185125351
P18206	0.867046475410461
P19174	0.00119160499889404
P19235	0.0196982733905315
P20936	0.0308189671486616
P20963	0.115992419421673
P21709	0.00359977432526648
P21802	0.00233529764227569
P22607	0.01042733900249
P22681	0.0266944859176874
P23458	0.411346137523651
P24941	0.0280063319951296
P27986	0.00217628432437778
P28482	0.062579408288002
P29317	0.00672716647386551
P29803	0.32237109541893
P35222	0.0934280231595039
P35916	0.044315543025732
P35968	0.00814778357744217
P40763	0.0285855699330568
P41219	0.438576936721802
P42224	0.232652187347412
P42226	0.0232592411339283
P42229	0.0226837750524282
P42680	0.112563103437424
P42685	0.0127761410549283
P43403	0.121129728853703
P43405	0.688120305538177
P46108	0.794671177864075
P49023	0.00687995972111821
P50613	0.254111975431442
P53778	0.772247195243835
P53779	0.0920495837926865
P54760	0.720097720623016
P54762	0.015712970867753
P54764	0.261659264564514
P62158	0.0323477685451508
P62714	0.167139202356339
Q01406	0.00176546769216657
Q04912	0.0387494005262852
Q05397	0.0566310659050941
Q05516	0.738493919372559
Q06124	0.0742428749799728
Q06418	0.328846395015717
Q06495	0.966132402420044
Q07001	0.723037421703339
Q07075	0.35626608133316
Q08345	0.0569241344928741
Q08999	0.688968479633331
Q13164	0.12692765891552
Q13627	0.108975045382977
Q14289	0.00749975116923451
Q14765	0.164805382490158
Q15303	0.0617253668606281
Q15375	0.875849068164825
Q16539	0.915353238582611
Q16620	0.139352068305016
Q99811	0.106808684766293
